<svg xmlns="http://www.w3.org/2000/svg" width="19.086" height="14.6" viewBox="0 0 19.086 14.6">
  <g id="arrow-left-white" transform="translate(-321.186 -701.064)">
    <path id="Path_1200" data-name="Path 1200" d="M324.729,708.964h14.943a.6.6,0,1,0,0-1.2H324.729a.6.6,0,1,0,0,1.2Z" fill="#fff"/>
    <path id="Path_1201" data-name="Path 1201" d="M322.635,708.364l6.275-6.276a.6.6,0,1,0-.848-.848l-6.7,6.7a.6.6,0,0,0,0,.848l6.7,6.7a.6.6,0,0,0,.848-.848Z" fill="#fff"/>
  </g>
</svg>
