<svg xmlns="http://www.w3.org/2000/svg" width="69" height="69" viewBox="0 0 69 69">
  <path id="iconbox-02" d="M761.809,993.62a61.426,61.426,0,0,1,35.862-22.594h.008a60.046,60.046,0,0,1,12.473-1.314,1.348,1.348,0,1,0,0-2.7,63.406,63.406,0,0,0-11.4,1.037v-2.909c4.871-4.124,7.545-9.527,7.545-15.281,0-5.949-2.858-11.523-8.048-15.7a1.348,1.348,0,0,0-1.69,0c-5.189,4.173-8.048,9.747-8.048,15.7,0,5.754,2.675,11.157,7.545,15.281v3.46a63.754,63.754,0,0,0-7.555,2.22v-7.891a1.342,1.342,0,0,0-.392-.949h0l-7.547-7.592a1.349,1.349,0,0,0-.956-.4H764.2a1.347,1.347,0,0,0-.955.4l-7.547,7.592h0a1.343,1.343,0,0,0-.392.95v5.146q-1.408-.258-2.83-.453v-4.8a14.9,14.9,0,0,0-.5-23.827,1.345,1.345,0,0,0-1.688,0,14.9,14.9,0,0,0-.5,23.826v4.495q-2.947-.276-5.929-.279a1.348,1.348,0,1,0,0,2.7,60.783,60.783,0,0,1,30.608,8.26,63.622,63.622,0,0,0-6.366,4.944,53.607,53.607,0,0,0-24.242-5.86,1.348,1.348,0,1,0,0,2.7,50.869,50.869,0,0,1,22.124,5.121,63.83,63.83,0,0,0-5.731,6.344,42.162,42.162,0,0,0-16.393-3.312,1.347,1.347,0,1,0,0,2.695,39.435,39.435,0,0,1,14.714,2.845q-1.4,1.941-2.648,3.988l-2.054,3.364a1.348,1.348,0,1,0,2.3,1.4l2.053-3.364a59.714,59.714,0,0,1,3.462-5.064A1.363,1.363,0,0,0,761.809,993.62Zm29.4-43.758a17.2,17.2,0,0,1,6.2-12.883,17.2,17.2,0,0,1,6.2,12.883,16.774,16.774,0,0,1-4.849,11.576v-10.32a1.347,1.347,0,1,0-2.695,0v10.32A16.771,16.771,0,0,1,791.206,949.862Zm-44.438,1.256a12.614,12.614,0,0,1,4.357-9.3,12.612,12.612,0,0,1,4.357,9.3,12.19,12.19,0,0,1-3.009,7.89V950.04a1.348,1.348,0,0,0-2.7,0v8.968A12.19,12.19,0,0,1,746.768,951.118Zm37.145,10.467H772.3l-4.868-4.9h11.608ZM764.2,957.252l4.308,4.333h-8.614Zm-4.312,11.842q-.941-.244-1.887-.462V964.28h12.4v8.57q-.936-.43-1.886-.832Zm13.207,5.075V964.28H785.8v7.589a63.135,63.135,0,0,0-6.751,3.276c-.7.392-1.39.8-2.072,1.217Q775.071,975.195,773.092,974.169Z" transform="translate(-742.5 -933.868)" fill="#fff"/>
</svg>
